{
  "name": "Python-3.10.8",
  "build": {
    "dockerfile": "Dockerfile"
  },
  "mounts": [
    "source=/var/run/docker.sock,target=/var/run/docker.sock,type=bind"
  ],
  "extensions": [
    "ms-python.python@2022.16.0",
    "ms-python.vscode-pylance@2022.10.10",
    "esbenp.prettier-vscode@9.8.0",
    "sourcery.sourcery@0.12.3",
    "redhat.vscode-yaml@1.10.1",
    "HashiCorp.terraform@2.24.3"
  ],
  "remoteUser": "python"
}
